Following the Money: 25 Years of Spending in Newark • njschooldata
…
pp <- nwk_series("CSG1", "Per Pupil costs", "Actuals")
pp_budget_2025 <- nwk_series("CSG1", "Per Pupil costs", "Budgeted") %>%
  filter(end_year == 2025)

stopifnot(nrow(pp) > 0, nrow(pp_budget_2025) == 1)
pp
#> # A tibble: 26 × 3
#>    report_year end_year value
#>          <int>    <dbl> <dbl>
#>  1        2001     1999 10027
#>  2        2002     2000 10954
#>  3        2003     2001 11242
#>  4        2004     2002 12600
#>  5        2005     2003 13167
#>  6        2006     2004 13687
#>  7        2007     2005 16758
#>  8        2008     2006 17502
#>  9        2009     2007 17760
#> 10        2010     2008 18466
#> # ℹ 16 more rows
…
4. Benefits ate the salary line

Here is the trend that drives every contentious school budget
meeting: employee benefits as a share of salaries. In Newark it
roughly tripled, from 10.9% in 2000 to 30.6% in 2024.
Health-plan premiums are the main driver, and they keep climbing faster
than pay, the same pressure squeezing districts statewide.

# the 1999 figure is a known decimal artifact in the early files; start at 2000
benefits <- nwk_series("CSG14", "% of Total Salaries", "Actuals") %>%
  filter(end_year >= 2000)
stopifnot(nrow(benefits) > 0)
benefits
#> # A tibble: 25 × 3
#>    report_year end_year value
#>          <int>    <dbl> <dbl>
#>  1        2002     2000 0.109
#>  2        2003     2001 0.149
#>  3        2004     2002 0.152
#>  4        2005     2003 0.157
#>  5        2006     2004 0.187
#>  6        2007     2005 0.192
#>  7        2008     2006 0.185
#>  8        2009     2007 0.205
#>  9        2010     2008 0.211
#> 10        2011     2009 0.204
#> # ℹ 15 more rows
…
facilities <- nwk_series("CSG10", "Per Pupil costs") %>%
  select(end_year, facilities = value) %>%
  inner_join(nwk_series("CSG1", "Per Pupil costs") %>% select(end_year, total = value),
             by = "end_year") %>%
  mutate(share = facilities / total)
stopifnot(nrow(facilities) > 0)
facilities
#> # A tibble: 26 × 4
#>    end_year facilities total share
#>       <dbl>      <dbl> <dbl> <dbl>
#>  1     1999       1528 10027 0.152
#>  2     2000       1875 10954 0.171
#>  3     2001       1969 11242 0.175
#>  4     2002       2066 12600 0.164
#>  5     2003       2224 13167 0.169
#>  6     2004       2340 13687 0.171
#>  7     2005       2365 16758 0.141
#>  8     2006       2661 17502 0.152
#>  9     2007       2635 17760 0.148
#> 10     2008       2743 18466 0.149
#> # ℹ 16 more rows
…
rank <- nwk_series("CSG1", "District rank", "Actuals")
stopifnot(nrow(rank) > 0)

# size of the peer group in the most recent guide, for context
n_peers <- reports[["2025"]][["CSG1"]] %>%
  filter(group == "G. K-12 / 3501 +", end_year == 2024,
         !is.na(district_id), district_id != "00NA") %>%
  distinct(district_id) %>%
  nrow()
n_peers
#> [1] 97

rank
#> # A tibble: 26 × 3
#>    report_year end_year value
#>          <int>    <dbl> <int>
#>  1        2001     1999    93
#>  2        2002     2000    95
#>  3        2003     2001    99
#>  4        2004     2002   103
#>  5        2005     2003   104
#>  6        2006     2004   104
#>  7        2007     2005   102
#>  8        2008     2006   104
#>  9        2009     2007   105
#> 10        2010     2008   105
#> # ℹ 16 more rows
…
