Following the Money: 25 Years of Spending in South Orange-Maplewood • njschooldata
…
1. A decade of flat spending, then a sharp surge

For most of the 2010s, SOMSD’s actual budgetary cost per pupil barely
moved: about $14,300 in 2010 and $14,700 in 2019, a real-terms decline
once you account for inflation. Then it broke loose. Actuals jumped from
$14,660 (2020) to $18,952 (2024), and the 2025 budget sets it at
$20,066.

pp <- somsd_series("CSG1", "Per Pupil costs", "Actuals")
pp_budget_2025 <- somsd_series("CSG1", "Per Pupil costs", "Budgeted") %>%
  filter(end_year == 2025)

stopifnot(nrow(pp) > 0, nrow(pp_budget_2025) == 1)
pp
#> # A tibble: 26 × 3
#>    report_year end_year value
#>          <int>    <dbl> <dbl>
#>  1        2001     1999  7946
#>  2        2002     2000  8260
#>  3        2003     2001  8691
#>  4        2004     2002  9219
#>  5        2005     2003  9626
#>  6        2006     2004 10271
#>  7        2007     2005 11101
#>  8        2008     2006 11366
#>  9        2009     2007 12594
#> 10        2010     2008 12983
#> # ℹ 16 more rows
…
2. Benefits ate the salary line

Here’s the trend that drives every contentious school budget meeting:
employee benefits as a share of salaries. In SOMSD it has more
than doubled, from 11.8% in 1999 to 24.4% in 2024. Health-plan
premiums (SEHBP) are the main driver, and they keep climbing faster than
pay.

benefits <- somsd_series("CSG14", "% of Total Salaries", "Actuals")
stopifnot(nrow(benefits) > 0)
benefits
#> # A tibble: 26 × 3
#>    report_year end_year value
#>          <int>    <dbl> <dbl>
#>  1        2001     1999 0.118
#>  2        2002     2000 0.13 
#>  3        2003     2001 0.142
#>  4        2004     2002 0.142
#>  5        2005     2003 0.164
#>  6        2006     2004 0.186
#>  7        2007     2005 0.195
#>  8        2008     2006 0.214
#>  9        2009     2007 0.211
#> 10        2010     2008 0.214
#> # ℹ 16 more rows
…
4. Teacher pay up, class sizes down

The median teacher salary nearly doubled over the period, from about
$45,000 to roughly $84,000. Over the same stretch the student-to-teacher
ratio drifted down from 14:1 toward 11:1, so the district is paying more
teachers, more.

salary <- somsd_series("CSG16", "Teacher Salary")
ratio  <- somsd_series("CSG16", "Student/Teacher ratio")
stopifnot(nrow(salary) > 0, nrow(ratio) > 0)
salary %>%
  inner_join(ratio, by = "end_year", suffix = c("_salary", "_ratio")) %>%
  transmute(end_year, median_salary = value_salary, students_per_teacher = value_ratio)
#> # A tibble: 26 × 3
#>    end_year median_salary students_per_teacher
#>       <dbl>         <dbl>                <dbl>
#>  1     2000         48624                 14.2
#>  2     2001         44696                 14  
#>  3     2002         50000                 14.2
#>  4     2003         49720                 13.8
#>  5     2004         54897                 13.8
#>  6     2005         58122                 13.4
#>  7     2006         58122                 13.4
#>  8     2007         54369                 12.8
#>  9     2008         67365                 12.8
#> 10     2009         69677                 12.7
#> # ℹ 16 more rows
…
rank <- somsd_series("CSG1", "District rank", "Actuals")
stopifnot(nrow(rank) > 0)

# size of the peer group in the most recent guide, for context
n_peers <- reports[["2025"]][["CSG1"]] %>%
  filter(group == "G. K-12 / 3501 +", end_year == 2025,
         !is.na(district_id), district_id != "00NA") %>%
  nrow()
n_peers
#> [1] 100

rank
#> # A tibble: 26 × 3
#>    report_year end_year value
#>          <int>    <dbl> <int>
#>  1        2001     1999    43
#>  2        2002     2000    46
#>  3        2003     2001    51
#>  4        2004     2002    56
#>  5        2005     2003    56
#>  6        2006     2004    59
#>  7        2007     2005    64
#>  8        2008     2006    64
#>  9        2009     2007    72
#> 10        2010     2008    70
#> # ℹ 16 more rows
…
facilities <- somsd_series("CSG10", "Per Pupil costs") %>%
  select(end_year, facilities = value) %>%
  inner_join(somsd_series("CSG1", "Per Pupil costs") %>% select(end_year, total = value),
             by = "end_year") %>%
  mutate(share = facilities / total)
stopifnot(nrow(facilities) > 0)
facilities
#> # A tibble: 26 × 4
#>    end_year facilities total share
#>       <dbl>      <dbl> <dbl> <dbl>
#>  1     1999       1110  7946 0.140
#>  2     2000       1127  8260 0.136
#>  3     2001       1123  8691 0.129
#>  4     2002       1289  9219 0.140
#>  5     2003       1413  9626 0.147
#>  6     2004       1693 10271 0.165
#>  7     2005       1750 11101 0.158
#>  8     2006       1831 11366 0.161
#>  9     2007       1806 12594 0.143
#> 10     2008       2062 12983 0.159
#> # ℹ 16 more rows
…
